<?xml version="1.0" encoding="utf-8"?>
<!-- Generator: Adobe Illustrator 21.1.0, SVG Export Plug-In . SVG Version: 6.00 Build 0)  -->
<svg version="1.1" id="Layer_1" xmlns="http://www.w3.org/2000/svg" xmlns:xlink="http://www.w3.org/1999/xlink" x="0px" y="0px"
	 viewBox="0 0 2500 2500" style="enable-background:new 0 0 2500 2500;" xml:space="preserve">
<style type="text/css">
	.st0{fill:#DFA22F;}
	.st1{fill:#3CB187;}
	.st2{fill:#CE1E5B;}
	.st3{fill:#392538;}
	.st4{fill:#BB242A;}
	.st5{fill:#72C5CD;}
	.st6{fill:#248C73;}
	.st7{fill:#62803A;}
</style>
<path class="st0" d="M1620.7,154.7c-38-116.9-163.6-180.9-280.5-142.9c-116.9,38-180.9,163.6-142.9,280.5l575.7,1771.1
	c39.5,109.2,157.5,170.6,270.8,138c118.2-34,190.2-159.5,152.5-275.6L1620.7,154.7"/>
<path class="st1" d="M728.8,444.5c-38-116.9-163.6-180.9-280.5-142.9c-117,38-181,163.6-142.9,280.5L881,2353.2
	c39.5,109.2,157.5,170.6,270.8,138c118.2-34,190.2-159.5,152.5-275.6L728.8,444.5"/>
<path class="st2" d="M2345.3,1621.5c116.9-38,180.9-163.6,142.9-280.5c-38-116.9-163.6-180.9-280.5-142.9L436.6,1773.8
	c-109.2,39.5-170.6,157.5-138,270.8c34,118.2,159.5,190.2,275.6,152.5L2345.3,1621.5"/>
<path class="st3" d="M805.7,2121.8l423.3-137.5l-137.6-423.4l-423.3,137.6L805.7,2121.8"/>
<path class="st4" d="M1697.7,1831.9c160-52,308.8-100.3,423.3-137.5L1983.5,1271l-423.3,137.6L1697.7,1831.9"/>
<path class="st5" d="M2055.5,729.6c116.9-38,180.9-163.6,142.9-280.5c-38-116.9-163.6-180.9-280.5-142.9L146.8,881.8
	c-109.2,39.5-170.6,157.5-138,270.8c34,118.1,159.5,190.2,275.6,152.5L2055.5,729.6"/>
<path class="st6" d="M515.8,1229.8c115.3-37.5,263.9-85.8,423.4-137.6c-52-160.1-100.3-308.8-137.5-423.4L378.2,806.5L515.8,1229.8"
	/>
<path class="st7" d="M1407.8,940l423.4-137.6c-45.9-141.1-91.8-282.3-137.6-423.4l-423.4,137.6L1407.8,940"/>
</svg>
